Lab 0: Getting Started with dplyr – Fan Yang - MUSA 5080
…
Price
numeric

Problematic names: Engine size, Fuel type, Year of manufacture (contain spaces)

1.2 Tibble vs Data Frame

Compare how tibbles and data frames display:

# Look at the tibble version (what we have)
car_data

# A tibble: 50,000 × 7
   Manufacturer Model    `Engine size` `Fuel type` `Year of manufacture` Mileage
   <chr>        <chr>            <dbl> <chr>                       <dbl>   <dbl>
 1 Ford         Fiesta             1   Petrol                       2002  127300
 2 Porsche      718 Cay…           4   Petrol                       2016   57850
 3 Ford         Mondeo             1.6 Diesel                       2014   39190
 4 Toyota       RAV4               1.8 Hybrid                       1988  210814
 5 VW           Polo               1   Petrol                       2006  127869
 6 Ford         Focus              1.4 Petrol                       2018   33603
 7 Ford         Mondeo             1.8 Diesel                       2010   86686
 8 Toyota       Prius              1.4 Hybrid                       2015   30663
 9 VW           Polo               1.2 Petrol                       2012   73470
10 Ford         Focus              2   Diesel                       1992  262514
# ℹ 49,990 more rows
# ℹ 1 more variable: Price <dbl>
…
Does not show column types alongside values.

Exercise 2: Basic Column Operations

2.1 Selecting Columns

Practice selecting different combinations of columns:

library(dplyr)

# Select just Model and Mileage columns
car_data %>%
  select(Model, Mileage)

# A tibble: 50,000 × 2
   Model      Mileage
   <chr>        <dbl>
 1 Fiesta      127300
 2 718 Cayman   57850
 3 Mondeo       39190
 4 RAV4        210814
 5 Polo        127869
 6 Focus        33603
 7 Mondeo       86686
 8 Prius        30663
 9 Polo         73470
10 Focus       262514
# ℹ 49,990 more rows

# Select Manufacturer, Price, and Fuel type
car_data %>%
  select(Manufacturer, Price, `Fuel type`)

# A tibble: 50,000 × 3
   Manufacturer Price `Fuel type`
   <chr>        <dbl> <chr>      
 1 Ford          3074 Petrol     
 2 Porsche      49704 Petrol     
 3 Ford         24072 Diesel     
 4 Toyota        1705 Hybrid     
 5 VW            4101 Petrol     
 6 Ford         29204 Petrol     
 7 Ford         14350 Diesel     
 8 Toyota       30297 Hybrid     
 9 VW            9977 Petrol     
10 Ford          1049 Diesel     
# ℹ 49,990 more rows

# Challenge: Select all columns EXCEPT Engine size
car_data %>%
  select(-`Engine size`)

# A tibble: 50,000 × 6
   Manufacturer Model      `Fuel type` `Year of manufacture` Mileage Price
   <chr>        <chr>      <chr>                       <dbl>   <dbl> <dbl>
 1 Ford         Fiesta     Petrol                       2002  127300  3074
 2 Porsche      718 Cayman Petrol                       2016   57850 49704
 3 Ford         Mondeo     Diesel                       2014   39190 24072
 4 Toyota       RAV4       Hybrid                       1988  210814  1705
 5 VW           Polo       Petrol                       2006  127869  4101
 6 Ford         Focus      Petrol                       2018   33603 29204
 7 Ford         Mondeo     Diesel                       2010   86686 14350
 8 Toyota       Prius      Hybrid                       2015   30663 30297
 9 VW           Polo       Petrol                       2012   73470  9977
10 Ford         Focus      Diesel                       1992  262514  1049
# ℹ 49,990 more rows
…
